com\mx\bean\City.class
com\mx\controller\GreetingController.class
com\mx\bean\ICityService.class
com\mx\bean\RequestDTO.class
com\mx\bean\User.class
com\mx\bean\Response.class
com\mx\bean\OperationResult.class
com\mx\bean\CityService.class
com\mx\bean\BaseIdEntity.class
com\mx\bean\Dispositivo.class
com\mx\bean\UserServiceF.class
com\mx\controller\RestApiController.class
com\mx\Application.class
com\mx\bean\LimitesUsuario.class
com\mx\bean\UserFRepository.class
com\mx\bean\IUserService.class
com\mx\bean\Usuarios.class
com\mx\bean\IUserServiceF.class
com\mx\bean\UserDetails.class
com\mx\bean\BaseEntity.class
com\mx\hello\Greeting.class
com\mx\bean\CustomErrorType.class
com\mx\bean\Principal.class
com\zetcode\controller\MyController.class
com\mx\bean\UserService.class
com\mx\UserController.class
com\mx\bean\CityRepository.class
