C:\sts\workspace\Servicios_001\src\main\java\com\mx\bean\Response.java
C:\sts\workspace\Servicios_001\src\main\java\com\mx\bean\BaseIdEntity.java
C:\sts\workspace\Servicios_001\src\main\java\com\mx\bean\Principal.java
C:\sts\workspace\Servicios_001\src\main\java\com\mx\bean\CustomErrorType.java
C:\sts\workspace\Servicios_001\src\main\java\com\mx\bean\IUserServiceF.java
C:\sts\workspace\Servicios_001\src\main\java\com\mx\bean\CityRepository.java
C:\sts\workspace\Servicios_001\src\main\java\com\mx\bean\UserDetails.java
C:\sts\workspace\Servicios_001\src\main\java\com\mx\bean\CityService.java
C:\sts\workspace\Servicios_001\src\main\java\com\mx\bean\IUserService.java
C:\sts\workspace\Servicios_001\src\main\java\com\mx\bean\User.java
C:\sts\workspace\Servicios_001\src\main\java\com\mx\hello\Greeting.java
C:\sts\workspace\Servicios_001\src\main\java\com\mx\bean\Dispositivo.java
C:\sts\workspace\Servicios_001\src\main\java\com\mx\bean\UserFRepository.java
C:\sts\workspace\Servicios_001\src\main\java\com\mx\bean\OperationResult.java
C:\sts\workspace\Servicios_001\src\main\java\com\mx\bean\City.java
C:\sts\workspace\Servicios_001\src\main\java\com\mx\controller\GreetingController.java
C:\sts\workspace\Servicios_001\src\main\java\com\mx\bean\RequestDTO.java
C:\sts\workspace\Servicios_001\src\main\java\com\zetcode\controller\MyController.java
C:\sts\workspace\Servicios_001\src\main\java\com\mx\Application.java
C:\sts\workspace\Servicios_001\src\main\java\com\mx\bean\BaseEntity.java
C:\sts\workspace\Servicios_001\src\main\java\com\mx\bean\UserService.java
C:\sts\workspace\Servicios_001\src\main\java\com\mx\bean\ICityService.java
C:\sts\workspace\Servicios_001\src\main\java\com\mx\bean\LimitesUsuario.java
C:\sts\workspace\Servicios_001\src\main\java\com\mx\bean\Usuarios.java
C:\sts\workspace\Servicios_001\src\main\java\com\mx\UserController.java
C:\sts\workspace\Servicios_001\src\main\java\com\mx\controller\RestApiController.java
C:\sts\workspace\Servicios_001\src\main\java\com\mx\bean\UserServiceF.java
